{
  "abi": [
    {
      "anonymous": false,
      "inputs": [
        {
          "indexed": true,
          "internalType": "address",
          "name": "previousOwner",
          "type": "address"
        },
        {
          "indexed": true,
          "internalType": "address",
          "name": "newOwner",
          "type": "address"
        }
      ],
      "name": "OwnershipTransferred",
      "type": "event"
    },
    {
      "inputs": [],
      "name": "isOwner",
      "outputs": [
        {
          "internalType": "bool",
          "name": "",
          "type": "bool"
        }
      ],
      "stateMutability": "view",
      "type": "function"
    },
    {
      "inputs": [],
      "name": "owner",
      "outputs": [
        {
          "internalType": "address",
          "name": "",
          "type": "address"
        }
      ],
      "stateMutability": "view",
      "type": "function"
    },
    {
      "inputs": [],
      "name": "renounceOwnership",
      "outputs": [],
      "stateMutability": "nonpayable",
      "type": "function"
    },
    {
      "inputs": [
        {
          "internalType": "address",
          "name": "newOwner",
          "type": "address"
        }
      ],
      "name": "transferOwnership",
      "outputs": [],
      "stateMutability": "nonpayable",
      "type": "function"
    }
  ],
  "bytecode": {
    "object": "0x",
    "sourceMap": "",
    "linkReferences": {}
  },
  "deployedBytecode": {
    "object": "0x",
    "sourceMap": "",
    "linkReferences": {}
  },
  "methodIdentifiers": {
    "isOwner()": "8f32d59b",
    "owner()": "8da5cb5b",
    "renounceOwnership()": "715018a6",
    "transferOwnership(address)": "f2fde38b"
  },
  "rawMetadata": "{\"compiler\":{\"version\":\"0.8.21+commit.d9974bed\"},\"language\":\"Solidity\",\"output\":{\"abi\":[{\"anonymous\":false,\"inputs\":[{\"indexed\":true,\"internalType\":\"address\",\"name\":\"previousOwner\",\"type\":\"address\"},{\"indexed\":true,\"internalType\":\"address\",\"name\":\"newOwner\",\"type\":\"address\"}],\"name\":\"OwnershipTransferred\",\"type\":\"event\"},{\"inputs\":[],\"name\":\"isOwner\",\"outputs\":[{\"internalType\":\"bool\",\"name\":\"\",\"type\":\"bool\"}],\"stateMutability\":\"view\",\"type\":\"function\"},{\"inputs\":[],\"name\":\"owner\",\"outputs\":[{\"internalType\":\"address\",\"name\":\"\",\"type\":\"address\"}],\"stateMutability\":\"view\",\"type\":\"function\"},{\"inputs\":[],\"name\":\"renounceOwnership\",\"outputs\":[],\"stateMutability\":\"nonpayable\",\"type\":\"function\"},{\"inputs\":[{\"internalType\":\"address\",\"name\":\"newOwner\",\"type\":\"address\"}],\"name\":\"transferOwnership\",\"outputs\":[],\"stateMutability\":\"nonpayable\",\"type\":\"function\"}],\"devdoc\":{\"details\":\"The Ownable contract has an owner address, and provides basic authorization control functions, this simplifies the implementation of \\\"user permissions\\\".\",\"kind\":\"dev\",\"methods\":{\"constructor\":{\"details\":\"The Ownable constructor sets the original `owner` of the contract to the sender account.\"},\"isOwner()\":{\"returns\":{\"_0\":\"true if `msg.sender` is the owner of the contract.\"}},\"owner()\":{\"returns\":{\"_0\":\"the address of the owner.\"}},\"renounceOwnership()\":{\"details\":\"Allows the current owner to relinquish control of the contract.\"},\"transferOwnership(address)\":{\"details\":\"Allows the current owner to transfer control of the contract to a newOwner.\",\"params\":{\"newOwner\":\"The address to transfer ownership to.\"}}},\"title\":\"Ownable\",\"version\":1},\"userdoc\":{\"kind\":\"user\",\"methods\":{\"renounceOwnership()\":{\"notice\":\"Renouncing to ownership will leave the contract without an owner. It will not be possible to call the functions with the `onlyOwner` modifier anymore.\"}},\"version\":1}},\"settings\":{\"compilationTarget\":{\"src/ownable.sol\":\"Ownable\"},\"evmVersion\":\"paris\",\"libraries\":{},\"metadata\":{\"bytecodeHash\":\"ipfs\"},\"optimizer\":{\"enabled\":true,\"runs\":200},\"remappings\":[\":ds-test/=lib/forge-std/lib/ds-test/src/\",\":forge-std/=lib/forge-std/src/\"]},\"sources\":{\"src/ownable.sol\":{\"keccak256\":\"0x36d11310f71780c9334d5cdb7af707275e32a687f4dcc32df64855683f6ddbba\",\"license\":\"UNLICENSED\",\"urls\":[\"bzz-raw://e152bef5d067db4b68296949ce664496bd62bc31ac8d317336634ea30d9b15e2\",\"dweb:/ipfs/QmQCCoCfv72mYSN4RPmp5hz1qpSGRhJdyvmRTVwBas3F9v\"]}},\"version\":1}",
  "metadata": {
    "compiler": {
      "version": "0.8.21+commit.d9974bed"
    },
    "language": "Solidity",
    "output": {
      "abi": [
        {
          "inputs": [
            {
              "internalType": "address",
              "name": "previousOwner",
              "type": "address",
              "indexed": true
            },
            {
              "internalType": "address",
              "name": "newOwner",
              "type": "address",
              "indexed": true
            }
          ],
          "type": "event",
          "name": "OwnershipTransferred",
          "anonymous": false
        },
        {
          "inputs": [],
          "stateMutability": "view",
          "type": "function",
          "name": "isOwner",
          "outputs": [
            {
              "internalType": "bool",
              "name": "",
              "type": "bool"
            }
          ]
        },
        {
          "inputs": [],
          "stateMutability": "view",
          "type": "function",
          "name": "owner",
          "outputs": [
            {
              "internalType": "address",
              "name": "",
              "type": "address"
            }
          ]
        },
        {
          "inputs": [],
          "stateMutability": "nonpayable",
          "type": "function",
          "name": "renounceOwnership"
        },
        {
          "inputs": [
            {
              "internalType": "address",
              "name": "newOwner",
              "type": "address"
            }
          ],
          "stateMutability": "nonpayable",
          "type": "function",
          "name": "transferOwnership"
        }
      ],
      "devdoc": {
        "kind": "dev",
        "methods": {
          "constructor": {
            "details": "The Ownable constructor sets the original `owner` of the contract to the sender account."
          },
          "isOwner()": {
            "returns": {
              "_0": "true if `msg.sender` is the owner of the contract."
            }
          },
          "owner()": {
            "returns": {
              "_0": "the address of the owner."
            }
          },
          "renounceOwnership()": {
            "details": "Allows the current owner to relinquish control of the contract."
          },
          "transferOwnership(address)": {
            "details": "Allows the current owner to transfer control of the contract to a newOwner.",
            "params": {
              "newOwner": "The address to transfer ownership to."
            }
          }
        },
        "version": 1
      },
      "userdoc": {
        "kind": "user",
        "methods": {
          "renounceOwnership()": {
            "notice": "Renouncing to ownership will leave the contract without an owner. It will not be possible to call the functions with the `onlyOwner` modifier anymore."
          }
        },
        "version": 1
      }
    },
    "settings": {
      "remappings": [
        "ds-test/=lib/forge-std/lib/ds-test/src/",
        "forge-std/=lib/forge-std/src/"
      ],
      "optimizer": {
        "enabled": true,
        "runs": 200
      },
      "metadata": {
        "bytecodeHash": "ipfs"
      },
      "compilationTarget": {
        "src/ownable.sol": "Ownable"
      },
      "libraries": {}
    },
    "sources": {
      "src/ownable.sol": {
        "keccak256": "0x36d11310f71780c9334d5cdb7af707275e32a687f4dcc32df64855683f6ddbba",
        "urls": [
          "bzz-raw://e152bef5d067db4b68296949ce664496bd62bc31ac8d317336634ea30d9b15e2",
          "dweb:/ipfs/QmQCCoCfv72mYSN4RPmp5hz1qpSGRhJdyvmRTVwBas3F9v"
        ],
        "license": "UNLICENSED"
      }
    },
    "version": 1
  },
  "ast": {
    "absolutePath": "src/ownable.sol",
    "id": 43101,
    "exportedSymbols": {
      "Ownable": [
        43100
      ]
    },
    "nodeType": "SourceUnit",
    "src": "39:2114:22",
    "nodes": [
      {
        "id": 42981,
        "nodeType": "PragmaDirective",
        "src": "39:24:22",
        "nodes": [],
        "literals": [
          "solidity",
          "^",
          "0.8",
          ".13"
        ]
      },
      {
        "id": 43100,
        "nodeType": "ContractDefinition",
        "src": "255:1897:22",
        "nodes": [
          {
            "id": 42984,
            "nodeType": "VariableDeclaration",
            "src": "287:22:22",
            "nodes": [],
            "constant": false,
            "mutability": "mutable",
            "name": "_owner",
            "nameLocation": "303:6:22",
            "scope": 43100,
            "stateVariable": true,
            "storageLocation": "default",
            "typeDescriptions": {
              "typeIdentifier": "t_address",
              "typeString": "address"
            },
            "typeName": {
              "id": 42983,
              "name": "address",
              "nodeType": "ElementaryTypeName",
              "src": "287:7:22",
              "stateMutability": "nonpayable",
              "typeDescriptions": {
                "typeIdentifier": "t_address",
                "typeString": "address"
              }
            },
            "visibility": "private"
          },
          {
            "id": 42990,
            "nodeType": "EventDefinition",
            "src": "316:106:22",
            "nodes": [],
            "anonymous": false,
            "eventSelector": "8be0079c531659141344cd1fd0a4f28419497f9722a3daafe3b4186f6b6457e0",
            "name": "OwnershipTransferred",
            "nameLocation": "322:20:22",
            "parameters": {
              "id": 42989,
              "nodeType": "ParameterList",
              "parameters": [
                {
                  "constant": false,
                  "id": 42986,
                  "indexed": true,
                  "mutability": "mutable",
                  "name": "previousOwner",
                  "nameLocation": "368:13:22",
                  "nodeType": "VariableDeclaration",
                  "scope": 42990,
                  "src": "352:29:22",
                  "stateVariable": false,
                  "storageLocation": "default",
                  "typeDescriptions": {
                    "typeIdentifier": "t_address",
                    "typeString": "address"
                  },
                  "typeName": {
                    "id": 42985,
                    "name": "address",
                    "nodeType": "ElementaryTypeName",
                    "src": "352:7:22",
                    "stateMutability": "nonpayable",
                    "typeDescriptions": {
                      "typeIdentifier": "t_address",
                      "typeString": "address"
                    }
                  },
                  "visibility": "internal"
                },
                {
                  "constant": false,
                  "id": 42988,
                  "indexed": true,
                  "mutability": "mutable",
                  "name": "newOwner",
                  "nameLocation": "407:8:22",
                  "nodeType": "VariableDeclaration",
                  "scope": 42990,
                  "src": "391:24:22",
                  "stateVariable": false,
                  "storageLocation": "default",
                  "typeDescriptions": {
                    "typeIdentifier": "t_address",
                    "typeString": "address"
                  },
                  "typeName": {
                    "id": 42987,
                    "name": "address",
                    "nodeType": "ElementaryTypeName",
                    "src": "391:7:22",
                    "stateMutability": "nonpayable",
                    "typeDescriptions": {
                      "typeIdentifier": "t_address",
                      "typeString": "address"
                    }
                  },
                  "visibility": "internal"
                }
              ],
              "src": "342:79:22"
            }
          },
          {
            "id": 43008,
            "nodeType": "FunctionDefinition",
            "src": "552:105:22",
            "nodes": [],
            "body": {
              "id": 43007,
              "nodeType": "Block",
              "src": "566:91:22",
              "nodes": [],
              "statements": [
                {
                  "expression": {
                    "id": 42997,
                    "isConstant": false,
                    "isLValue": false,
                    "isPure": false,
                    "lValueRequested": false,
                    "leftHandSide": {
                      "id": 42994,
                      "name": "_owner",
                      "nodeType": "Identifier",
                      "overloadedDeclarations": [],
                      "referencedDeclaration": 42984,
                      "src": "576:6:22",
                      "typeDescriptions": {
                        "typeIdentifier": "t_address",
                        "typeString": "address"
                      }
                    },
                    "nodeType": "Assignment",
                    "operator": "=",
                    "rightHandSide": {
                      "expression": {
                        "id": 42995,
                        "name": "msg",
                        "nodeType": "Identifier",
                        "overloadedDeclarations": [],
                        "referencedDeclaration": -15,
                        "src": "585:3:22",
                        "typeDescriptions": {
                          "typeIdentifier": "t_magic_message",
                          "typeString": "msg"
                        }
                      },
                      "id": 42996,
                      "isConstant": false,
                      "isLValue": false,
                      "isPure": false,
                      "lValueRequested": false,
                      "memberLocation": "589:6:22",
                      "memberName": "sender",
                      "nodeType": "MemberAccess",
                      "src": "585:10:22",
                      "typeDescriptions": {
                        "typeIdentifier": "t_address",
                        "typeString": "address"
                      }
                    },
                    "src": "576:19:22",
                    "typeDescriptions": {
                      "typeIdentifier": "t_address",
                      "typeString": "address"
                    }
                  },
                  "id": 42998,
                  "nodeType": "ExpressionStatement",
                  "src": "576:19:22"
                },
                {
                  "eventCall": {
                    "arguments": [
                      {
                        "arguments": [
                          {
                            "hexValue": "30",
                            "id": 43002,
                            "isConstant": false,
                            "isLValue": false,
                            "isPure": true,
                            "kind": "number",
                            "lValueRequested": false,
                            "nodeType": "Literal",
                            "src": "639:1:22",
                            "typeDescriptions": {
                              "typeIdentifier": "t_rational_0_by_1",
                              "typeString": "int_const 0"
                            },
                            "value": "0"
                          }
                        ],
                        "expression": {
                          "argumentTypes": [
                            {
                              "typeIdentifier": "t_rational_0_by_1",
                              "typeString": "int_const 0"
                            }
                          ],
                          "id": 43001,
                          "isConstant": false,
                          "isLValue": false,
                          "isPure": true,
                          "lValueRequested": false,
                          "nodeType": "ElementaryTypeNameExpression",
                          "src": "631:7:22",
                          "typeDescriptions": {
                            "typeIdentifier": "t_type$_t_address_$",
                            "typeString": "type(address)"
                          },
                          "typeName": {
                            "id": 43000,
                            "name": "address",
                            "nodeType": "ElementaryTypeName",
                            "src": "631:7:22",
                            "typeDescriptions": {}
                          }
                        },
                        "id": 43003,
                        "isConstant": false,
                        "isLValue": false,
                        "isPure": true,
                        "kind": "typeConversion",
                        "lValueRequested": false,
                        "nameLocations": [],
                        "names": [],
                        "nodeType": "FunctionCall",
                        "src": "631:10:22",
                        "tryCall": false,
                        "typeDescriptions": {
                          "typeIdentifier": "t_address",
                          "typeString": "address"
                        }
                      },
                      {
                        "id": 43004,
                        "name": "_owner",
                        "nodeType": "Identifier",
                        "overloadedDeclarations": [],
                        "referencedDeclaration": 42984,
                        "src": "643:6:22",
                        "typeDescriptions": {
                          "typeIdentifier": "t_address",
                          "typeString": "address"
                        }
                      }
                    ],
                    "expression": {
                      "argumentTypes": [
                        {
                          "typeIdentifier": "t_address",
                          "typeString": "address"
                        },
                        {
                          "typeIdentifier": "t_address",
                          "typeString": "address"
                        }
                      ],
                      "id": 42999,
                      "name": "OwnershipTransferred",
                      "nodeType": "Identifier",
                      "overloadedDeclarations": [],
                      "referencedDeclaration": 42990,
                      "src": "610:20:22",
                      "typeDescriptions": {
                        "typeIdentifier": "t_function_event_nonpayable$_t_address_$_t_address_$returns$__$",
                        "typeString": "function (address,address)"
                      }
                    },
                    "id": 43005,
                    "isConstant": false,
                    "isLValue": false,
                    "isPure": false,
                    "kind": "functionCall",
                    "lValueRequested": false,
                    "nameLocations": [],
                    "names": [],
                    "nodeType": "FunctionCall",
                    "src": "610:40:22",
                    "tryCall": false,
                    "typeDescriptions": {
                      "typeIdentifier": "t_tuple$__$",
                      "typeString": "tuple()"
                    }
                  },
                  "id": 43006,
                  "nodeType": "EmitStatement",
                  "src": "605:45:22"
                }
              ]
            },
            "documentation": {
              "id": 42991,
              "nodeType": "StructuredDocumentation",
              "src": "428:119:22",
              "text": " @dev The Ownable constructor sets the original `owner` of the contract to the sender\n account."
            },
            "implemented": true,
            "kind": "constructor",
            "modifiers": [],
            "name": "",
            "nameLocation": "-1:-1:-1",
            "parameters": {
              "id": 42992,
              "nodeType": "ParameterList",
              "parameters": [],
              "src": "563:2:22"
            },
            "returnParameters": {
              "id": 42993,
              "nodeType": "ParameterList",
              "parameters": [],
              "src": "566:0:22"
            },
            "scope": 43100,
            "stateMutability": "nonpayable",
            "virtual": false,
            "visibility": "internal"
          },
          {
            "id": 43017,
            "nodeType": "FunctionDefinition",
            "src": "720:77:22",
            "nodes": [],
            "body": {
              "id": 43016,
              "nodeType": "Block",
              "src": "767:30:22",
              "nodes": [],
              "statements": [
                {
                  "expression": {
                    "id": 43014,
                    "name": "_owner",
                    "nodeType": "Identifier",
                    "overloadedDeclarations": [],
                    "referencedDeclaration": 42984,
                    "src": "784:6:22",
                    "typeDescriptions": {
                      "typeIdentifier": "t_address",
                      "typeString": "address"
                    }
                  },
                  "functionReturnParameters": 43013,
                  "id": 43015,
                  "nodeType": "Return",
                  "src": "777:13:22"
                }
              ]
            },
            "documentation": {
              "id": 43009,
              "nodeType": "StructuredDocumentation",
              "src": "663:52:22",
              "text": " @return the address of the owner."
            },
            "functionSelector": "8da5cb5b",
            "implemented": true,
            "kind": "function",
            "modifiers": [],
            "name": "owner",
            "nameLocation": "729:5:22",
            "parameters": {
              "id": 43010,
              "nodeType": "ParameterList",
              "parameters": [],
              "src": "734:2:22"
            },
            "returnParameters": {
              "id": 43013,
              "nodeType": "ParameterList",
              "parameters": [
                {
                  "constant": false,
                  "id": 43012,
                  "mutability": "mutable",
                  "name": "",
                  "nameLocation": "-1:-1:-1",
                  "nodeType": "VariableDeclaration",
                  "scope": 43017,
                  "src": "758:7:22",
                  "stateVariable": false,
                  "storageLocation": "default",
                  "typeDescriptions": {
                    "typeIdentifier": "t_address",
                    "typeString": "address"
                  },
                  "typeName": {
                    "id": 43011,
                    "name": "address",
                    "nodeType": "ElementaryTypeName",
                    "src": "758:7:22",
                    "stateMutability": "nonpayable",
                    "typeDescriptions": {
                      "typeIdentifier": "t_address",
                      "typeString": "address"
                    }
                  },
                  "visibility": "internal"
                }
              ],
              "src": "757:9:22"
            },
            "scope": 43100,
            "stateMutability": "view",
            "virtual": false,
            "visibility": "public"
          },
          {
            "id": 43027,
            "nodeType": "ModifierDefinition",
            "src": "885:67:22",
            "nodes": [],
            "body": {
              "id": 43026,
              "nodeType": "Block",
              "src": "906:46:22",
              "nodes": [],
              "statements": [
                {
                  "expression": {
                    "arguments": [
                      {
                        "arguments": [],
                        "expression": {
                          "argumentTypes": [],
                          "id": 43021,
                          "name": "isOwner",
                          "nodeType": "Identifier",
                          "overloadedDeclarations": [],
                          "referencedDeclaration": 43039,
                          "src": "924:7:22",
                          "typeDescriptions": {
                            "typeIdentifier": "t_function_internal_view$__$returns$_t_bool_$",
                            "typeString": "function () view returns (bool)"
                          }
                        },
                        "id": 43022,
                        "isConstant": false,
                        "isLValue": false,
                        "isPure": false,
                        "kind": "functionCall",
                        "lValueRequested": false,
                        "nameLocations": [],
                        "names": [],
                        "nodeType": "FunctionCall",
                        "src": "924:9:22",
                        "tryCall": false,
                        "typeDescriptions": {
                          "typeIdentifier": "t_bool",
                          "typeString": "bool"
                        }
                      }
                    ],
                    "expression": {
                      "argumentTypes": [
                        {
                          "typeIdentifier": "t_bool",
                          "typeString": "bool"
                        }
                      ],
                      "id": 43020,
                      "name": "require",
                      "nodeType": "Identifier",
                      "overloadedDeclarations": [
                        -18,
                        -18
                      ],
                      "referencedDeclaration": -18,
                      "src": "916:7:22",
                      "typeDescriptions": {
                        "typeIdentifier": "t_function_require_pure$_t_bool_$returns$__$",
                        "typeString": "function (bool) pure"
                      }
                    },
                    "id": 43023,
                    "isConstant": false,
                    "isLValue": false,
                    "isPure": false,
                    "kind": "functionCall",
                    "lValueRequested": false,
                    "nameLocations": [],
                    "names": [],
                    "nodeType": "FunctionCall",
                    "src": "916:18:22",
                    "tryCall": false,
                    "typeDescriptions": {
                      "typeIdentifier": "t_tuple$__$",
                      "typeString": "tuple()"
                    }
                  },
                  "id": 43024,
                  "nodeType": "ExpressionStatement",
                  "src": "916:18:22"
                },
                {
                  "id": 43025,
                  "nodeType": "PlaceholderStatement",
                  "src": "944:1:22"
                }
              ]
            },
            "documentation": {
              "id": 43018,
              "nodeType": "StructuredDocumentation",
              "src": "803:77:22",
              "text": " @dev Throws if called by any account other than the owner."
            },
            "name": "onlyOwner",
            "nameLocation": "894:9:22",
            "parameters": {
              "id": 43019,
              "nodeType": "ParameterList",
              "parameters": [],
              "src": "903:2:22"
            },
            "virtual": false,
            "visibility": "internal"
          },
          {
            "id": 43039,
            "nodeType": "FunctionDefinition",
            "src": "1040:90:22",
            "nodes": [],
            "body": {
              "id": 43038,
              "nodeType": "Block",
              "src": "1086:44:22",
              "nodes": [],
              "statements": [
                {
                  "expression": {
                    "commonType": {
                      "typeIdentifier": "t_address",
                      "typeString": "address"
                    },
                    "id": 43036,
                    "isConstant": false,
                    "isLValue": false,
                    "isPure": false,
                    "lValueRequested": false,
                    "leftExpression": {
                      "expression": {
                        "id": 43033,
                        "name": "msg",
                        "nodeType": "Identifier",
                        "overloadedDeclarations": [],
                        "referencedDeclaration": -15,
                        "src": "1103:3:22",
                        "typeDescriptions": {
                          "typeIdentifier": "t_magic_message",
                          "typeString": "msg"
                        }
                      },
                      "id": 43034,
                      "isConstant": false,
                      "isLValue": false,
                      "isPure": false,
                      "lValueRequested": false,
                      "memberLocation": "1107:6:22",
                      "memberName": "sender",
                      "nodeType": "MemberAccess",
                      "src": "1103:10:22",
                      "typeDescriptions": {
                        "typeIdentifier": "t_address",
                        "typeString": "address"
                      }
                    },
                    "nodeType": "BinaryOperation",
                    "operator": "==",
                    "rightExpression": {
                      "id": 43035,
                      "name": "_owner",
                      "nodeType": "Identifier",
                      "overloadedDeclarations": [],
                      "referencedDeclaration": 42984,
                      "src": "1117:6:22",
                      "typeDescriptions": {
                        "typeIdentifier": "t_address",
                        "typeString": "address"
                      }
                    },
                    "src": "1103:20:22",
                    "typeDescriptions": {
                      "typeIdentifier": "t_bool",
                      "typeString": "bool"
                    }
                  },
                  "functionReturnParameters": 43032,
                  "id": 43037,
                  "nodeType": "Return",
                  "src": "1096:27:22"
                }
              ]
            },
            "documentation": {
              "id": 43028,
              "nodeType": "StructuredDocumentation",
              "src": "958:77:22",
              "text": " @return true if `msg.sender` is the owner of the contract."
            },
            "functionSelector": "8f32d59b",
            "implemented": true,
            "kind": "function",
            "modifiers": [],
            "name": "isOwner",
            "nameLocation": "1049:7:22",
            "parameters": {
              "id": 43029,
              "nodeType": "ParameterList",
              "parameters": [],
              "src": "1056:2:22"
            },
            "returnParameters": {
              "id": 43032,
              "nodeType": "ParameterList",
              "parameters": [
                {
                  "constant": false,
                  "id": 43031,
                  "mutability": "mutable",
                  "name": "",
                  "nameLocation": "-1:-1:-1",
                  "nodeType": "VariableDeclaration",
                  "scope": 43039,
                  "src": "1080:4:22",
                  "stateVariable": false,
                  "storageLocation": "default",
                  "typeDescriptions": {
                    "typeIdentifier": "t_bool",
                    "typeString": "bool"
                  },
                  "typeName": {
                    "id": 43030,
                    "name": "bool",
                    "nodeType": "ElementaryTypeName",
                    "src": "1080:4:22",
                    "typeDescriptions": {
                      "typeIdentifier": "t_bool",
                      "typeString": "bool"
                    }
                  },
                  "visibility": "internal"
                }
              ],
              "src": "1079:6:22"
            },
            "scope": 43100,
            "stateMutability": "view",
            "virtual": false,
            "visibility": "public"
          },
          {
            "id": 43061,
            "nodeType": "FunctionDefinition",
            "src": "1408:137:22",
            "nodes": [],
            "body": {
              "id": 43060,
              "nodeType": "Block",
              "src": "1454:91:22",
              "nodes": [],
              "statements": [
                {
                  "eventCall": {
                    "arguments": [
                      {
                        "id": 43046,
                        "name": "_owner",
                        "nodeType": "Identifier",
                        "overloadedDeclarations": [],
                        "referencedDeclaration": 42984,
                        "src": "1490:6:22",
                        "typeDescriptions": {
                          "typeIdentifier": "t_address",
                          "typeString": "address"
                        }
                      },
                      {
                        "arguments": [
                          {
                            "hexValue": "30",
                            "id": 43049,
                            "isConstant": false,
                            "isLValue": false,
                            "isPure": true,
                            "kind": "number",
                            "lValueRequested": false,
                            "nodeType": "Literal",
                            "src": "1506:1:22",
                            "typeDescriptions": {
                              "typeIdentifier": "t_rational_0_by_1",
                              "typeString": "int_const 0"
                            },
                            "value": "0"
                          }
                        ],
                        "expression": {
                          "argumentTypes": [
                            {
                              "typeIdentifier": "t_rational_0_by_1",
                              "typeString": "int_const 0"
                            }
                          ],
                          "id": 43048,
                          "isConstant": false,
                          "isLValue": false,
                          "isPure": true,
                          "lValueRequested": false,
                          "nodeType": "ElementaryTypeNameExpression",
                          "src": "1498:7:22",
                          "typeDescriptions": {
                            "typeIdentifier": "t_type$_t_address_$",
                            "typeString": "type(address)"
                          },
                          "typeName": {
                            "id": 43047,
                            "name": "address",
                            "nodeType": "ElementaryTypeName",
                            "src": "1498:7:22",
                            "typeDescriptions": {}
                          }
                        },
                        "id": 43050,
                        "isConstant": false,
                        "isLValue": false,
                        "isPure": true,
                        "kind": "typeConversion",
                        "lValueRequested": false,
                        "nameLocations": [],
                        "names": [],
                        "nodeType": "FunctionCall",
                        "src": "1498:10:22",
                        "tryCall": false,
                        "typeDescriptions": {
                          "typeIdentifier": "t_address",
                          "typeString": "address"
                        }
                      }
                    ],
                    "expression": {
                      "argumentTypes": [
                        {
                          "typeIdentifier": "t_address",
                          "typeString": "address"
                        },
                        {
                          "typeIdentifier": "t_address",
                          "typeString": "address"
                        }
                      ],
                      "id": 43045,
                      "name": "OwnershipTransferred",
                      "nodeType": "Identifier",
                      "overloadedDeclarations": [],
                      "referencedDeclaration": 42990,
                      "src": "1469:20:22",
                      "typeDescriptions": {
                        "typeIdentifier": "t_function_event_nonpayable$_t_address_$_t_address_$returns$__$",
                        "typeString": "function (address,address)"
                      }
                    },
                    "id": 43051,
                    "isConstant": false,
                    "isLValue": false,
                    "isPure": false,
                    "kind": "functionCall",
                    "lValueRequested": false,
                    "nameLocations": [],
                    "names": [],
                    "nodeType": "FunctionCall",
                    "src": "1469:40:22",
                    "tryCall": false,
                    "typeDescriptions": {
                      "typeIdentifier": "t_tuple$__$",
                      "typeString": "tuple()"
                    }
                  },
                  "id": 43052,
                  "nodeType": "EmitStatement",
                  "src": "1464:45:22"
                },
                {
                  "expression": {
                    "id": 43058,
                    "isConstant": false,
                    "isLValue": false,
                    "isPure": false,
                    "lValueRequested": false,
                    "leftHandSide": {
                      "id": 43053,
                      "name": "_owner",
                      "nodeType": "Identifier",
                      "overloadedDeclarations": [],
                      "referencedDeclaration": 42984,
                      "src": "1519:6:22",
                      "typeDescriptions": {
                        "typeIdentifier": "t_address",
                        "typeString": "address"
                      }
                    },
                    "nodeType": "Assignment",
                    "operator": "=",
                    "rightHandSide": {
                      "arguments": [
                        {
                          "hexValue": "30",
                          "id": 43056,
                          "isConstant": false,
                          "isLValue": false,
                          "isPure": true,
                          "kind": "number",
                          "lValueRequested": false,
                          "nodeType": "Literal",
                          "src": "1536:1:22",
                          "typeDescriptions": {
                            "typeIdentifier": "t_rational_0_by_1",
                            "typeString": "int_const 0"
                          },
                          "value": "0"
                        }
                      ],
                      "expression": {
                        "argumentTypes": [
                          {
                            "typeIdentifier": "t_rational_0_by_1",
                            "typeString": "int_const 0"
                          }
                        ],
                        "id": 43055,
                        "isConstant": false,
                        "isLValue": false,
                        "isPure": true,
                        "lValueRequested": false,
                        "nodeType": "ElementaryTypeNameExpression",
                        "src": "1528:7:22",
                        "typeDescriptions": {
                          "typeIdentifier": "t_type$_t_address_$",
                          "typeString": "type(address)"
                        },
                        "typeName": {
                          "id": 43054,
                          "name": "address",
                          "nodeType": "ElementaryTypeName",
                          "src": "1528:7:22",
                          "typeDescriptions": {}
                        }
                      },
                      "id": 43057,
                      "isConstant": false,
                      "isLValue": false,
                      "isPure": true,
                      "kind": "typeConversion",
                      "lValueRequested": false,
                      "nameLocations": [],
                      "names": [],
                      "nodeType": "FunctionCall",
                      "src": "1528:10:22",
                      "tryCall": false,
                      "typeDescriptions": {
                        "typeIdentifier": "t_address",
                        "typeString": "address"
                      }
                    },
                    "src": "1519:19:22",
                    "typeDescriptions": {
                      "typeIdentifier": "t_address",
                      "typeString": "address"
                    }
                  },
                  "id": 43059,
                  "nodeType": "ExpressionStatement",
                  "src": "1519:19:22"
                }
              ]
            },
            "documentation": {
              "id": 43040,
              "nodeType": "StructuredDocumentation",
              "src": "1136:267:22",
              "text": " @dev Allows the current owner to relinquish control of the contract.\n @notice Renouncing to ownership will leave the contract without an owner.\n It will not be possible to call the functions with the `onlyOwner`\n modifier anymore."
            },
            "functionSelector": "715018a6",
            "implemented": true,
            "kind": "function",
            "modifiers": [
              {
                "id": 43043,
                "kind": "modifierInvocation",
                "modifierName": {
                  "id": 43042,
                  "name": "onlyOwner",
                  "nameLocations": [
                    "1444:9:22"
                  ],
                  "nodeType": "IdentifierPath",
                  "referencedDeclaration": 43027,
                  "src": "1444:9:22"
                },
                "nodeType": "ModifierInvocation",
                "src": "1444:9:22"
              }
            ],
            "name": "renounceOwnership",
            "nameLocation": "1417:17:22",
            "parameters": {
              "id": 43041,
              "nodeType": "ParameterList",
              "parameters": [],
              "src": "1434:2:22"
            },
            "returnParameters": {
              "id": 43044,
              "nodeType": "ParameterList",
              "parameters": [],
              "src": "1454:0:22"
            },
            "scope": 43100,
            "stateMutability": "nonpayable",
            "virtual": false,
            "visibility": "public"
          },
          {
            "id": 43074,
            "nodeType": "FunctionDefinition",
            "src": "1716:107:22",
            "nodes": [],
            "body": {
              "id": 43073,
              "nodeType": "Block",
              "src": "1778:45:22",
              "nodes": [],
              "statements": [
                {
                  "expression": {
                    "arguments": [
                      {
                        "id": 43070,
                        "name": "newOwner",
                        "nodeType": "Identifier",
                        "overloadedDeclarations": [],
                        "referencedDeclaration": 43064,
                        "src": "1807:8:22",
                        "typeDescriptions": {
                          "typeIdentifier": "t_address",
                          "typeString": "address"
                        }
                      }
                    ],
                    "expression": {
                      "argumentTypes": [
                        {
                          "typeIdentifier": "t_address",
                          "typeString": "address"
                        }
                      ],
                      "id": 43069,
                      "name": "_transferOwnership",
                      "nodeType": "Identifier",
                      "overloadedDeclarations": [],
                      "referencedDeclaration": 43099,
                      "src": "1788:18:22",
                      "typeDescriptions": {
                        "typeIdentifier": "t_function_internal_nonpayable$_t_address_$returns$__$",
                        "typeString": "function (address)"
                      }
                    },
                    "id": 43071,
                    "isConstant": false,
                    "isLValue": false,
                    "isPure": false,
                    "kind": "functionCall",
                    "lValueRequested": false,
                    "nameLocations": [],
                    "names": [],
                    "nodeType": "FunctionCall",
                    "src": "1788:28:22",
                    "tryCall": false,
                    "typeDescriptions": {
                      "typeIdentifier": "t_tuple$__$",
                      "typeString": "tuple()"
                    }
                  },
                  "id": 43072,
                  "nodeType": "ExpressionStatement",
                  "src": "1788:28:22"
                }
              ]
            },
            "documentation": {
              "id": 43062,
              "nodeType": "StructuredDocumentation",
              "src": "1551:160:22",
              "text": " @dev Allows the current owner to transfer control of the contract to a newOwner.\n @param newOwner The address to transfer ownership to."
            },
            "functionSelector": "f2fde38b",
            "implemented": true,
            "kind": "function",
            "modifiers": [
              {
                "id": 43067,
                "kind": "modifierInvocation",
                "modifierName": {
                  "id": 43066,
                  "name": "onlyOwner",
                  "nameLocations": [
                    "1768:9:22"
                  ],
                  "nodeType": "IdentifierPath",
                  "referencedDeclaration": 43027,
                  "src": "1768:9:22"
                },
                "nodeType": "ModifierInvocation",
                "src": "1768:9:22"
              }
            ],
            "name": "transferOwnership",
            "nameLocation": "1725:17:22",
            "parameters": {
              "id": 43065,
              "nodeType": "ParameterList",
              "parameters": [
                {
                  "constant": false,
                  "id": 43064,
                  "mutability": "mutable",
                  "name": "newOwner",
                  "nameLocation": "1751:8:22",
                  "nodeType": "VariableDeclaration",
                  "scope": 43074,
                  "src": "1743:16:22",
                  "stateVariable": false,
                  "storageLocation": "default",
                  "typeDescriptions": {
                    "typeIdentifier": "t_address",
                    "typeString": "address"
                  },
                  "typeName": {
                    "id": 43063,
                    "name": "address",
                    "nodeType": "ElementaryTypeName",
                    "src": "1743:7:22",
                    "stateMutability": "nonpayable",
                    "typeDescriptions": {
                      "typeIdentifier": "t_address",
                      "typeString": "address"
                    }
                  },
                  "visibility": "internal"
                }
              ],
              "src": "1742:18:22"
            },
            "returnParameters": {
              "id": 43068,
              "nodeType": "ParameterList",
              "parameters": [],
              "src": "1778:0:22"
            },
            "scope": 43100,
            "stateMutability": "nonpayable",
            "virtual": false,
            "visibility": "public"
          },
          {
            "id": 43099,
            "nodeType": "FunctionDefinition",
            "src": "1967:183:22",
            "nodes": [],
            "body": {
              "id": 43098,
              "nodeType": "Block",
              "src": "2022:128:22",
              "nodes": [],
              "statements": [
                {
                  "expression": {
                    "arguments": [
                      {
                        "commonType": {
                          "typeIdentifier": "t_address",
                          "typeString": "address"
                        },
                        "id": 43086,
                        "isConstant": false,
                        "isLValue": false,
                        "isPure": false,
                        "lValueRequested": false,
                        "leftExpression": {
                          "id": 43081,
                          "name": "newOwner",
                          "nodeType": "Identifier",
                          "overloadedDeclarations": [],
                          "referencedDeclaration": 43077,
                          "src": "2040:8:22",
                          "typeDescriptions": {
                            "typeIdentifier": "t_address",
                            "typeString": "address"
                          }
                        },
                        "nodeType": "BinaryOperation",
                        "operator": "!=",
                        "rightExpression": {
                          "arguments": [
                            {
                              "hexValue": "30",
                              "id": 43084,
                              "isConstant": false,
                              "isLValue": false,
                              "isPure": true,
                              "kind": "number",
                              "lValueRequested": false,
                              "nodeType": "Literal",
                              "src": "2060:1:22",
                              "typeDescriptions": {
                                "typeIdentifier": "t_rational_0_by_1",
                                "typeString": "int_const 0"
                              },
                              "value": "0"
                            }
                          ],
                          "expression": {
                            "argumentTypes": [
                              {
                                "typeIdentifier": "t_rational_0_by_1",
                                "typeString": "int_const 0"
                              }
                            ],
                            "id": 43083,
                            "isConstant": false,
                            "isLValue": false,
                            "isPure": true,
                            "lValueRequested": false,
                            "nodeType": "ElementaryTypeNameExpression",
                            "src": "2052:7:22",
                            "typeDescriptions": {
                              "typeIdentifier": "t_type$_t_address_$",
                              "typeString": "type(address)"
                            },
                            "typeName": {
                              "id": 43082,
                              "name": "address",
                              "nodeType": "ElementaryTypeName",
                              "src": "2052:7:22",
                              "typeDescriptions": {}
                            }
                          },
                          "id": 43085,
                          "isConstant": false,
                          "isLValue": false,
                          "isPure": true,
                          "kind": "typeConversion",
                          "lValueRequested": false,
                          "nameLocations": [],
                          "names": [],
                          "nodeType": "FunctionCall",
                          "src": "2052:10:22",
                          "tryCall": false,
                          "typeDescriptions": {
                            "typeIdentifier": "t_address",
                            "typeString": "address"
                          }
                        },
                        "src": "2040:22:22",
                        "typeDescriptions": {
                          "typeIdentifier": "t_bool",
                          "typeString": "bool"
                        }
                      }
                    ],
                    "expression": {
                      "argumentTypes": [
                        {
                          "typeIdentifier": "t_bool",
                          "typeString": "bool"
                        }
                      ],
                      "id": 43080,
                      "name": "require",
                      "nodeType": "Identifier",
                      "overloadedDeclarations": [
                        -18,
                        -18
                      ],
                      "referencedDeclaration": -18,
                      "src": "2032:7:22",
                      "typeDescriptions": {
                        "typeIdentifier": "t_function_require_pure$_t_bool_$returns$__$",
                        "typeString": "function (bool) pure"
                      }
                    },
                    "id": 43087,
                    "isConstant": false,
                    "isLValue": false,
                    "isPure": false,
                    "kind": "functionCall",
                    "lValueRequested": false,
                    "nameLocations": [],
                    "names": [],
                    "nodeType": "FunctionCall",
                    "src": "2032:31:22",
                    "tryCall": false,
                    "typeDescriptions": {
                      "typeIdentifier": "t_tuple$__$",
                      "typeString": "tuple()"
                    }
                  },
                  "id": 43088,
                  "nodeType": "ExpressionStatement",
                  "src": "2032:31:22"
                },
                {
                  "eventCall": {
                    "arguments": [
                      {
                        "id": 43090,
                        "name": "_owner",
                        "nodeType": "Identifier",
                        "overloadedDeclarations": [],
                        "referencedDeclaration": 42984,
                        "src": "2099:6:22",
                        "typeDescriptions": {
                          "typeIdentifier": "t_address",
                          "typeString": "address"
                        }
                      },
                      {
                        "id": 43091,
                        "name": "newOwner",
                        "nodeType": "Identifier",
                        "overloadedDeclarations": [],
                        "referencedDeclaration": 43077,
                        "src": "2107:8:22",
                        "typeDescriptions": {
                          "typeIdentifier": "t_address",
                          "typeString": "address"
                        }
                      }
                    ],
                    "expression": {
                      "argumentTypes": [
                        {
                          "typeIdentifier": "t_address",
                          "typeString": "address"
                        },
                        {
                          "typeIdentifier": "t_address",
                          "typeString": "address"
                        }
                      ],
                      "id": 43089,
                      "name": "OwnershipTransferred",
                      "nodeType": "Identifier",
                      "overloadedDeclarations": [],
                      "referencedDeclaration": 42990,
                      "src": "2078:20:22",
                      "typeDescriptions": {
                        "typeIdentifier": "t_function_event_nonpayable$_t_address_$_t_address_$returns$__$",
                        "typeString": "function (address,address)"
                      }
                    },
                    "id": 43092,
                    "isConstant": false,
                    "isLValue": false,
                    "isPure": false,
                    "kind": "functionCall",
                    "lValueRequested": false,
                    "nameLocations": [],
                    "names": [],
                    "nodeType": "FunctionCall",
                    "src": "2078:38:22",
                    "tryCall": false,
                    "typeDescriptions": {
                      "typeIdentifier": "t_tuple$__$",
                      "typeString": "tuple()"
                    }
                  },
                  "id": 43093,
                  "nodeType": "EmitStatement",
                  "src": "2073:43:22"
                },
                {
                  "expression": {
                    "id": 43096,
                    "isConstant": false,
                    "isLValue": false,
                    "isPure": false,
                    "lValueRequested": false,
                    "leftHandSide": {
                      "id": 43094,
                      "name": "_owner",
                      "nodeType": "Identifier",
                      "overloadedDeclarations": [],
                      "referencedDeclaration": 42984,
                      "src": "2126:6:22",
                      "typeDescriptions": {
                        "typeIdentifier": "t_address",
                        "typeString": "address"
                      }
                    },
                    "nodeType": "Assignment",
                    "operator": "=",
                    "rightHandSide": {
                      "id": 43095,
                      "name": "newOwner",
                      "nodeType": "Identifier",
                      "overloadedDeclarations": [],
                      "referencedDeclaration": 43077,
                      "src": "2135:8:22",
                      "typeDescriptions": {
                        "typeIdentifier": "t_address",
                        "typeString": "address"
                      }
                    },
                    "src": "2126:17:22",
                    "typeDescriptions": {
                      "typeIdentifier": "t_address",
                      "typeString": "address"
                    }
                  },
                  "id": 43097,
                  "nodeType": "ExpressionStatement",
                  "src": "2126:17:22"
                }
              ]
            },
            "documentation": {
              "id": 43075,
              "nodeType": "StructuredDocumentation",
              "src": "1829:133:22",
              "text": " @dev Transfers control of the contract to a newOwner.\n @param newOwner The address to transfer ownership to."
            },
            "implemented": true,
            "kind": "function",
            "modifiers": [],
            "name": "_transferOwnership",
            "nameLocation": "1976:18:22",
            "parameters": {
              "id": 43078,
              "nodeType": "ParameterList",
              "parameters": [
                {
                  "constant": false,
                  "id": 43077,
                  "mutability": "mutable",
                  "name": "newOwner",
                  "nameLocation": "2003:8:22",
                  "nodeType": "VariableDeclaration",
                  "scope": 43099,
                  "src": "1995:16:22",
                  "stateVariable": false,
                  "storageLocation": "default",
                  "typeDescriptions": {
                    "typeIdentifier": "t_address",
                    "typeString": "address"
                  },
                  "typeName": {
                    "id": 43076,
                    "name": "address",
                    "nodeType": "ElementaryTypeName",
                    "src": "1995:7:22",
                    "stateMutability": "nonpayable",
                    "typeDescriptions": {
                      "typeIdentifier": "t_address",
                      "typeString": "address"
                    }
                  },
                  "visibility": "internal"
                }
              ],
              "src": "1994:18:22"
            },
            "returnParameters": {
              "id": 43079,
              "nodeType": "ParameterList",
              "parameters": [],
              "src": "2022:0:22"
            },
            "scope": 43100,
            "stateMutability": "nonpayable",
            "virtual": false,
            "visibility": "internal"
          }
        ],
        "abstract": true,
        "baseContracts": [],
        "canonicalName": "Ownable",
        "contractDependencies": [],
        "contractKind": "contract",
        "documentation": {
          "id": 42982,
          "nodeType": "StructuredDocumentation",
          "src": "65:189:22",
          "text": " @title Ownable\n @dev The Ownable contract has an owner address, and provides basic authorization control\n functions, this simplifies the implementation of \"user permissions\"."
        },
        "fullyImplemented": true,
        "linearizedBaseContracts": [
          43100
        ],
        "name": "Ownable",
        "nameLocation": "273:7:22",
        "scope": 43101,
        "usedErrors": [],
        "usedEvents": [
          42990
        ]
      }
    ],
    "license": "UNLICENSED"
  },
  "id": 22
}